…
[Dplyr](https://dplyr.tidyverse.org/) is a very popular package in R community, let's try to install it in R session. Open and R session and type:

```r
install.packages("dplyr")
```
After install, enable the package and do som transformation in default dataframe ("starwars").
```r
library(dplyr)

starwars %>% 
  mutate(name, bmi = mass / ((height / 100)  ^ 2)) %>%
  select(name:mass, bmi)

# A tibble: 87 x 3
   name               height  mass
   <chr>               <int> <dbl>
 1 Luke Skywalker        172    77
 2 C-3PO                 167    75
 3 R2-D2                  96    32
 4 Darth Vader           202   136
 5 Leia Organa           150    49
 6 Owen Lars             178   120
 7 Beru Whitesun lars    165    75
 8 R5-D4                  97    32
 9 Biggs Darklighter     183    84
10 Obi-Wan Kenobi        182    77
# … with 77 more rows
…
